%YAML 1.1
%TAG !u! tag:unity3d.com,2011:
--- !u!1045 &1
EditorBuildSettings:
  m_ObjectHideFlags: 0
  serializedVersion: 2
  m_Scenes:
  - enabled: 0
    path: Assets/Scenes/SampleScene.unity
    guid: 99c9720ab356a0642a771bea13969a05
  - enabled: 1
    path: Assets/Menu.unity
    guid: 27d32cfec4da88341a0626889d2a5567
  - enabled: 1
    path: Assets/MainGame.unity
    guid: f2349d1a81d1a5d44926b74f45beea27
  m_configObjects: {}
